<svg xmlns="http://www.w3.org/2000/svg" width="70" height="88.325" viewBox="0 0 70 88.325">
  <g id="HomeBtn" transform="translate(-136 -395.675)">
    <text id="Home" transform="translate(171 478)" fill="#fff" font-size="25" font-family="WeblySleekUISemibold, WeblySleek UI"><tspan x="-34.369" y="0">Home</tspan></text>
    <g id="home-icon-silhouette" transform="translate(141.26 378.628)">
      <g id="Group_3" data-name="Group 3" transform="translate(0.001 17.047)">
        <g id="Group_2" data-name="Group 2" transform="translate(0 0)">
          <path id="Path_6" data-name="Path 6" d="M57.889,41.823,48.966,32.9V22.592a3.375,3.375,0,0,0-6.749,0V26.15l-6.644-6.644a8.878,8.878,0,0,0-12.273.006L.988,41.823A3.375,3.375,0,0,0,5.763,46.6L28.072,24.284a1.992,1.992,0,0,1,2.731,0L53.115,46.6a3.375,3.375,0,1,0,4.774-4.773Z" transform="translate(-0.001 -17.047)" fill="#fff"/>
          <path id="Path_7" data-name="Path 7" d="M91.081,128.234a1.656,1.656,0,0,0-2.344,0L69.112,147.853a1.661,1.661,0,0,0-.485,1.174v14.309a6.081,6.081,0,0,0,6.08,6.08h9.716V154.369h10.97v15.047h9.716a6.081,6.081,0,0,0,6.08-6.08v-14.31a1.655,1.655,0,0,0-.486-1.174Z" transform="translate(-60.471 -114.591)" fill="#fff"/>
        </g>
      </g>
    </g>
  </g>
</svg>
